<svg xmlns="http://www.w3.org/2000/svg" width="41.548" height="45.331" viewBox="0 0 41.548 45.331">
  <defs>
    <style>
      .cls-1 {
        fill: #fff;
      }
    </style>
  </defs>
  <g id="Icon_ionic-logo-android" data-name="Icon ionic-logo-android" transform="translate(-5.625 -4.497)">
    <g id="Group_103" data-name="Group 103" transform="translate(5.625 17.722)">
      <path id="Path_43" data-name="Path 43" class="cls-1" d="M10.125,22.518V33.094a1.534,1.534,0,0,0,1.346,1.652h3.376v6.138a2.833,2.833,0,1,0,5.666,0V34.746H26.3v6.138a2.82,2.82,0,0,0,1.039,2.2,2.637,2.637,0,0,0,1.735.637h.059a2.826,2.826,0,0,0,2.833-2.833V34.746h3.258a1.522,1.522,0,0,0,1.346-1.641V13.5H10.125Z" transform="translate(-2.571 -11.611)"/>
      <path id="Path_44" data-name="Path 44" class="cls-1" d="M29.833,12.375A2.826,2.826,0,0,0,27,15.208V26.539a2.833,2.833,0,1,0,5.666,0V15.208A2.826,2.826,0,0,0,29.833,12.375Z" transform="translate(8.882 -12.375)"/>
      <path id="Path_45" data-name="Path 45" class="cls-1" d="M8.458,12.375a2.826,2.826,0,0,0-2.833,2.833V26.539a2.833,2.833,0,0,0,5.666,0V15.208A2.826,2.826,0,0,0,8.458,12.375Z" transform="translate(-5.625 -12.375)"/>
    </g>
    <path id="Path_46" data-name="Path 46" class="cls-1" d="M29.86,7.465,32.044,4.88c.047-.059-.024-.189-.153-.3s-.283-.118-.319-.047L29.305,7.229A16.035,16.035,0,0,0,23.333,6.19a16.171,16.171,0,0,0-6,1L15.094,4.55c-.047-.059-.189-.047-.319.047s-.2.212-.153.3l2.16,2.55c-5.689,2.467-6.539,8.522-6.657,10.293H36.517C36.411,15.952,35.573,9.979,29.86,7.465ZM17.537,13.343a1.57,1.57,0,1,1,1.593-1.57A1.589,1.589,0,0,1,17.537,13.343Zm11.614,0a1.57,1.57,0,1,1,1.593-1.57A1.589,1.589,0,0,1,29.152,13.343Z" transform="translate(3.054 0)"/>
  </g>
</svg>
